<?xml version="1.0" encoding="iso-8859-1"?>
<!-- Generator: Adobe Illustrator 21.0.0, SVG Export Plug-In . SVG Version: 6.00 Build 0)  -->
<svg version="1.1" id="Layer_1" xmlns="http://www.w3.org/2000/svg" xmlns:xlink="http://www.w3.org/1999/xlink" x="0px" y="0px"
	 viewBox="0 0 1366 768" style="enable-background:new 0 0 1366 768;" xml:space="preserve">
<g>
	<line style="fill:#42BA84;" x1="689.273" y1="390.981" x2="685.895" y2="387.606"/>
	<path style="fill:#42BA84;" d="M689.273,391.582c-0.156,0-0.308-0.058-0.425-0.175l-3.379-3.379c-0.235-0.235-0.235-0.614,0-0.848
		c0.234-0.234,0.617-0.234,0.851,0l3.375,3.379c0.235,0.234,0.235,0.613,0,0.848C689.578,391.524,689.426,391.582,689.273,391.582
		L689.273,391.582z M689.273,391.582"/>
	<path style="fill:#42BA84;" d="M681.895,389.188c-3.079,0-5.586-2.504-5.586-5.582c0-3.082,2.507-5.586,5.586-5.586
		c3.078,0,5.585,2.504,5.585,5.586C687.48,386.684,684.973,389.188,681.895,389.188L681.895,389.188z M681.895,379.219
		c-2.418,0-4.383,1.969-4.383,4.387c0,2.418,1.965,4.383,4.383,4.383c2.417,0,4.382-1.965,4.382-4.383
		C686.277,381.188,684.312,379.219,681.895,379.219L681.895,379.219z M681.895,379.219"/>
</g>
</svg>
