<?xml version="1.0" encoding="utf-8"?>
<!-- Generator: Adobe Illustrator 15.0.2, SVG Export Plug-In . SVG Version: 6.00 Build 0)  -->
<!DOCTYPE svg PUBLIC "-//W3C//DTD SVG 1.1//EN" "http://www.w3.org/Graphics/SVG/1.1/DTD/svg11.dtd">
<svg version="1.1" id="Layer_1" xmlns="http://www.w3.org/2000/svg" xmlns:xlink="http://www.w3.org/1999/xlink" x="0px" y="0px"
	 width="122.271px" height="103.497px" viewBox="315.36 49.893 122.271 103.497"
	 enable-background="new 315.36 49.893 122.271 103.497" xml:space="preserve">
<path d="M390.601,139.262c-9.752,6.674-20.392,9.594-32.167,7.452c-14.316-2.604-25.081-10.229-31.968-23.096
	c-3.69-6.894-5.167-14.28-5.071-21.977c-0.096-7.697,1.381-15.083,5.071-21.977c6.888-12.867,17.652-20.492,31.968-23.096
	c11.775-2.142,22.415,0.779,32.167,7.451c0.17,0.116,0.347,0.223,0.568,0.358c0.573,0.542,1.365,0.876,2.239,0.876
	c1.751,0,3.171-1.344,3.171-3.001c0-1.015-0.534-1.911-1.349-2.454c0,0,0.001-0.001,0.001-0.002
	c-0.009-0.005-0.018-0.011-0.027-0.017c-0.028-0.018-0.057-0.035-0.085-0.051c-2.375-1.44-4.614-2.924-6.969-4.19
	c-18.679-10.043-40.666-5.957-55.195,6.484c-10.082,8.632-15.81,19.686-17.218,32.816c-0.246,2.292-0.372,4.561-0.376,6.801
	c0.004,2.241,0.131,4.509,0.376,6.802c1.408,13.131,7.137,24.184,17.218,32.816c14.53,12.439,36.516,16.526,55.195,6.483
	c2.392-1.286,4.663-2.797,7.081-4.259c-1.415-1.748-2.61-3.224-3.826-4.726C391.066,138.971,390.828,139.107,390.601,139.262z"/>
<g>
	<path d="M390.601,64.02c-9.752-6.672-20.392-9.593-32.167-7.452c-14.316,2.604-25.081,10.229-31.968,23.096
		c-3.69,6.894-5.167,14.28-5.071,21.977c-0.096,7.697,1.381,15.083,5.071,21.976c6.888,12.867,17.652,20.492,31.968,23.097
		c11.775,2.142,22.415-0.779,32.167-7.452c0.17-0.115,0.347-0.223,0.568-0.357c0.573-0.541,1.365-0.877,2.239-0.877
		c1.751,0,3.171,1.344,3.171,3.002c0,1.015-0.534,1.91-1.349,2.453c0,0,0.001,0.001,0.001,0.002
		c-0.009,0.005-0.018,0.011-0.027,0.016c-0.028,0.019-0.057,0.035-0.085,0.053c-2.375,1.439-4.614,2.924-6.969,4.189
		c-18.679,10.043-40.666,5.956-55.195-6.484c-10.082-8.632-15.81-19.686-17.218-32.816c-0.246-2.292-0.372-4.56-0.376-6.801
		c0.004-2.241,0.131-4.509,0.376-6.801c1.408-13.131,7.137-24.184,17.218-32.816c14.53-12.441,36.516-16.527,55.195-6.484
		c2.392,1.286,4.663,2.797,7.081,4.258c-1.415,1.748-2.61,3.224-3.826,4.726C391.066,64.312,390.828,64.175,390.601,64.02z"/>
</g>
<path d="M437.595,101.641c0.013-0.012,0.024-0.024,0.037-0.036c-8.456-8.307-16.764-16.469-24.843-24.406
	c-0.001,0.001-0.002,0.002-0.004,0.003c-0.514-0.521-1.228-0.844-2.018-0.844c-1.566,0-2.836,1.27-2.836,2.836
	c0,0.907,0.428,1.713,1.091,2.232c5.396,5.666,10.773,11.311,16.151,16.957c-19.965,0-40.086,0-60.156,0c0,0.01,0,0.02,0,0.031
	c-1.481,0.2-2.624,1.466-2.624,3.002c0,0.076,0.005,0.15,0.01,0.224H437.595z"/>
<path d="M437.595,101.571c0.013,0.012,0.024,0.024,0.037,0.036c-8.456,8.307-16.764,16.469-24.843,24.406
	c-0.001-0.001-0.002-0.003-0.004-0.003c-0.514,0.521-1.228,0.844-2.018,0.844c-1.566,0-2.836-1.27-2.836-2.836
	c0-0.907,0.428-1.713,1.091-2.232c5.396-5.665,10.773-11.311,16.151-16.957c-19.965,0-40.086,0-60.156,0c0-0.011,0-0.021,0-0.031
	c-1.481-0.2-2.624-1.466-2.624-3.002c0-0.076,0.005-0.15,0.01-0.224H437.595z"/>
</svg>
