<?xml version="1.0" encoding="utf-8"?>
<!-- Generator: Adobe Illustrator 15.0.2, SVG Export Plug-In . SVG Version: 6.00 Build 0)  -->
<!DOCTYPE svg PUBLIC "-//W3C//DTD SVG 1.1//EN" "http://www.w3.org/Graphics/SVG/1.1/DTD/svg11.dtd">
<svg version="1.1" id="Layer_1" xmlns="http://www.w3.org/2000/svg" xmlns:xlink="http://www.w3.org/1999/xlink" x="0px" y="0px"
	 width="800px" height="215px" viewBox="0 0 800 215" enable-background="new 0 0 800 215" xml:space="preserve">
<g>
	<path fill="#06CD89" d="M181.425,189.822c0,6.695-2.233,12.217-6.696,16.562c-4.463,4.347-9.984,6.578-16.681,6.578
		c-14.096,0-25.958-4.698-35.591-14.097c-9.633-9.396-14.448-21.144-14.448-35.238V75.411c0-1.761-0.823-2.7-2.467-2.818v78.583
		c0,6.695-2.232,12.217-6.696,16.562c-4.463,4.346-9.984,6.578-16.679,6.578c-6.696,0-12.217-2.232-16.562-6.578
		c-4.347-4.346-6.579-9.867-6.579-16.562V75.411c0-1.878-0.939-2.818-2.818-2.818c-1.88,0-2.819,0.94-2.819,2.818v75.766
		c0,6.695-2.233,12.217-6.578,16.562c-4.347,4.346-9.867,6.578-16.562,6.578c-6.696,0-12.216-2.232-16.681-6.578
		c-4.462-4.346-6.694-9.984-6.694-16.562V57.792c0-13.861,4.816-25.489,14.33-35.122c9.515-9.514,21.261-14.331,35.005-14.331
		c8.928,0,17.15,2.232,24.55,6.696c7.399-4.463,15.622-6.696,24.549-6.696c13.862,0,25.49,4.817,35.005,14.331
		c9.513,9.515,14.212,21.261,14.212,35.122v88.215c0,1.88,0.94,2.819,2.821,2.819c6.93,0,12.685,2.232,17.266,6.579
		c4.581,4.346,6.813,9.983,6.813,16.797c0,3.053-0.471,5.99-1.528,8.809C180.838,183.715,181.425,186.651,181.425,189.822z
		 M169.913,172.203c0-3.524-1.057-6.344-3.288-8.575c-2.232-2.231-5.052-3.289-8.576-3.289h-0.703
		c-3.995,0-7.401-1.409-10.103-4.111c-2.703-2.701-4.111-6.107-4.111-10.101V57.792c0-10.807-3.642-19.851-10.807-27.134
		c-7.166-7.283-16.209-10.924-27.017-10.924c-9.397,0-17.62,3.054-24.549,9.28c-7.166-6.226-15.388-9.28-24.55-9.28
		c-10.808,0-19.852,3.642-27.017,10.924c-7.284,7.283-10.926,16.327-10.926,27.134v75.764c0,3.524,1.059,6.344,3.29,8.575
		c2.232,2.114,5.05,3.289,8.575,3.289c3.523,0,6.342-1.057,8.576-3.289c2.114-2.114,3.288-5.051,3.288-8.575V57.792
		c0-3.994,1.41-7.399,4.111-10.102c2.701-2.702,6.109-4.111,10.103-4.111c3.875,0,7.165,1.409,9.984,4.229
		c2.818,2.82,4.229,6.109,4.229,9.985v75.764c0,3.524,1.057,6.344,3.288,8.575c2.114,2.114,5.05,3.289,8.575,3.289
		c3.524,0,6.344-1.057,8.576-3.289c2.231-2.114,3.288-5.051,3.288-8.575V49.217c2.819-3.759,6.579-5.638,11.277-5.638
		c3.876,0,7.166,1.409,9.867,4.229c2.702,2.82,4.111,6.109,4.111,9.985v88.215c0,10.808,3.642,19.734,10.926,27.018
		c7.281,7.282,16.327,10.924,27.017,10.924h0.703c3.524,0,6.344-1.057,8.576-3.289C168.856,178.546,169.913,175.727,169.913,172.203
		z"/>
	<path fill="#06CD89" d="M261.301,118.169c0,15.858-5.404,29.249-16.329,40.055c-10.924,10.925-24.197,16.329-40.055,16.329
		c-15.975,0-29.25-5.404-40.055-16.329c-10.807-10.806-16.211-24.196-16.211-40.172c0-2.937,0.235-5.873,0.705-8.81
		c-0.47-2.937-0.705-5.874-0.705-8.811c0-15.974,5.404-29.366,16.211-40.055c10.806-10.807,24.08-16.21,40.055-16.21
		c15.975,0,29.25,5.403,40.172,16.21c10.807,10.807,16.211,24.197,16.211,40.055c0,3.055-0.235,5.991-0.705,8.928
		C261.066,112.412,261.301,115.232,261.301,118.169z M249.906,100.667c0-12.804-4.346-23.493-12.921-32.067
		c-8.574-8.575-19.263-12.804-32.067-12.804s-23.376,4.229-31.95,12.804c-8.575,8.574-12.804,19.264-12.804,32.067
		c0,12.805,4.229,23.493,12.804,32.067c8.574,8.575,19.264,12.921,31.95,12.921c12.804,0,23.494-4.346,32.067-12.921
		C245.561,124.16,249.906,113.353,249.906,100.667z M226.178,100.667c0,5.873-2.114,10.808-6.225,15.035
		c-4.111,4.111-9.162,6.226-15.035,6.226c-5.873,0-10.807-2.114-14.918-6.226s-6.109-9.162-6.109-15.035
		c0-5.874,1.998-10.807,6.109-14.918s9.045-6.108,14.918-6.108c5.874,0,10.806,1.997,15.035,6.108
		C224.064,89.86,226.178,94.793,226.178,100.667z"/>
	<path fill="#06CD89" d="M367.253,118.169c0,15.858-5.404,29.249-16.328,40.055c-10.923,10.925-24.197,16.329-40.055,16.329
		c-15.977,0-29.25-5.404-40.057-16.329c-10.806-10.806-16.209-24.196-16.209-40.172c0-2.937,0.235-5.873,0.706-8.81
		c-0.47-2.937-0.706-5.874-0.706-8.811c0-15.974,5.403-29.366,16.209-40.055c10.807-10.807,24.08-16.21,40.057-16.21
		c15.974,0,29.366,5.403,40.173,16.21c10.805,10.807,16.209,24.197,16.209,40.055c0,3.055-0.234,5.991-0.706,8.928
		C367.019,112.412,367.253,115.232,367.253,118.169z M355.86,100.667c0-12.804-4.347-23.493-12.922-32.067
		c-8.575-8.575-19.265-12.804-32.067-12.804c-12.804,0-23.376,4.229-31.95,12.804c-8.576,8.574-12.805,19.264-12.805,32.067
		c0,12.805,4.229,23.493,12.805,32.067c8.574,8.575,19.263,12.921,31.95,12.921c12.803,0,23.493-4.346,32.067-12.921
		C351.514,124.16,355.86,113.353,355.86,100.667z M332.131,100.667c0,5.873-2.114,10.808-6.224,15.035
		c-4.112,4.111-9.164,6.226-15.036,6.226c-5.874,0-10.807-2.114-14.918-6.226s-6.109-9.162-6.109-15.035
		c0-5.874,1.998-10.807,6.109-14.918s9.044-6.108,14.918-6.108c5.873,0,10.807,1.997,15.036,6.108
		C330.018,89.86,332.131,94.793,332.131,100.667z"/>
	<path fill="#06CD89" d="M473.207,118.052c0,15.74-5.521,29.013-16.445,39.938c-10.925,10.925-24.315,16.328-39.938,16.328
		c-15.857,0-29.133-5.403-39.938-16.21c-10.808-10.808-16.211-24.08-16.211-39.938c0-2.937,0.235-5.873,0.706-8.81
		c-0.47-2.937-0.706-5.873-0.706-8.81c0-15.857,5.403-29.249,16.211-40.056c10.805-10.806,24.081-16.21,40.055-16.21
		c3.524,0,6.813,0.588,9.866,1.761V31.599c0-6.578,2.232-12.1,6.695-16.563c4.465-4.463,9.984-6.696,16.562-6.696
		c6.696,0,12.216,2.232,16.681,6.578c4.464,4.347,6.695,9.984,6.695,16.562v86.572H473.207z M461.694,100.432V31.48
		c0-3.523-1.057-6.343-3.288-8.575c-2.232-2.114-5.05-3.289-8.574-3.289c-3.408,0-6.227,1.059-8.459,3.289
		c-2.23,2.232-3.288,5.052-3.288,8.458v68.952c0,5.874-2.115,10.806-6.227,14.917c-4.11,4.111-9.161,6.108-15.034,6.108
		c-5.874,0-10.808-1.997-14.919-6.108s-6.107-9.044-6.107-14.917s1.996-10.807,6.107-15.035c4.111-4.112,9.045-6.226,14.919-6.226
		c3.523,0,6.343-1.057,8.574-3.289c2.23-2.115,3.29-5.051,3.29-8.457c0-3.525-1.06-6.343-3.29-8.575
		c-2.231-2.232-5.051-3.289-8.574-3.289c-12.804,0-23.376,4.346-31.951,12.921c-8.575,8.575-12.804,19.264-12.804,31.951
		c0,12.569,4.348,23.257,12.922,31.832c8.574,8.575,19.264,12.921,31.833,12.921c12.686,0,23.257-4.346,31.948-12.921
		C457.467,123.808,461.694,113.118,461.694,100.432z M423.755,107.245c-2.702,0.117-6.462,0.821-11.277,2.114
		c1.292,0.587,2.702,0.823,4.229,0.823C419.525,110.183,421.874,109.242,423.755,107.245z"/>
	<path fill="#06CD89" d="M580.1,118.169c0,15.623-5.521,28.896-16.445,39.82c-10.925,10.925-24.315,16.328-39.938,16.328
		c-15.858,0-29.133-5.403-39.938-16.21c-10.808-10.808-16.212-24.198-16.212-40.056V31.48c0-6.578,2.233-12.099,6.696-16.562
		c4.463-4.462,9.984-6.695,16.562-6.695c6.695,0,12.217,2.232,16.679,6.578c4.465,4.464,6.697,9.984,6.697,16.679v14.448
		c3.054-1.174,6.225-1.761,9.632-1.761c15.975,0,29.248,5.403,40.172,16.21c10.808,10.807,16.211,24.197,16.211,40.055
		c0,3.055-0.235,5.991-0.704,8.811C579.864,112.296,580.1,115.232,580.1,118.169z M568.704,100.667
		c0-12.686-4.345-23.375-12.921-31.951c-8.573-8.575-19.263-12.921-32.066-12.921c-3.524,0-6.344,1.057-8.575,3.289
		c-2.115,2.231-3.289,5.051-3.289,8.575s1.057,6.343,3.289,8.457c2.114,2.115,5.051,3.289,8.575,3.289
		c5.873,0,10.806,2.115,15.035,6.226c4.111,4.111,6.227,9.162,6.227,15.035c0,5.873-2.115,10.808-6.227,14.918
		c-4.111,4.112-9.162,6.108-15.035,6.108s-10.808-1.996-14.919-6.108c-4.11-4.11-6.107-9.045-6.107-14.918V31.715
		c0-3.524-1.058-6.343-3.289-8.575c-2.232-2.113-5.051-3.289-8.575-3.289c-3.405,0-6.226,1.057-8.458,3.289
		c-2.231,2.232-3.288,5.051-3.288,8.458v68.951c0,12.686,4.345,23.258,12.921,31.95c8.575,8.693,19.265,12.922,31.833,12.922
		c12.687,0,23.258-4.346,31.949-12.922C564.359,123.808,568.704,113.235,568.704,100.667z M528.18,109.359
		c-1.292-0.587-3.17-0.939-5.638-1.174c-2.818-0.235-4.698-0.471-5.755-0.823c1.878,1.997,4.227,2.937,7.047,2.937
		C525.243,110.183,526.771,109.946,528.18,109.359z"/>
	<path fill="#06CD89" d="M646.349,85.162c0,6.931-2.113,12.452-6.225,16.446c-4.111,3.993-9.633,6.343-16.211,6.931
		c-2.349,0.116-3.524,0.938-3.524,2.583v39.82c0,6.695-2.231,12.216-6.694,16.563c-4.464,4.346-9.984,6.577-16.681,6.577
		c-6.695,0-12.215-2.231-16.562-6.577c-4.346-4.348-6.578-9.985-6.578-16.681V93.267c0-13.861,4.816-25.49,14.331-35.004
		c9.516-9.515,21.262-14.214,35.004-14.214c6.578,0,12.101,2.232,16.562,6.696c4.465,4.464,6.696,9.985,6.696,16.563
		c0,3.289-0.587,6.226-1.763,8.927C645.762,79.288,646.349,82.108,646.349,85.162z M634.954,67.542c0-3.407-1.057-6.226-3.288-8.458
		c-2.231-2.232-5.051-3.406-8.458-3.406c-10.806,0-19.852,3.641-27.017,10.806c-7.282,7.165-10.924,16.21-10.924,27.017v39.938
		c0,3.524,1.057,6.343,3.288,8.575c2.115,2.114,5.053,3.289,8.576,3.289c3.524,0,6.343-1.058,8.575-3.289
		c2.23-2.114,3.289-5.051,3.289-8.575v-39.82c0-3.994,1.291-7.283,3.993-9.75c2.584-2.467,5.991-3.994,9.985-4.346
		C630.961,78.936,634.954,74.942,634.954,67.542z"/>
	<path fill="#06CD89" d="M751.831,118.052c0,15.74-5.52,29.013-16.444,39.938c-10.924,10.925-24.314,16.328-39.938,16.328
		c-15.858,0-29.131-5.403-39.938-16.21c-10.807-10.808-16.21-24.08-16.21-39.938c0-2.937,0.235-5.873,0.706-8.81
		c-0.471-2.937-0.706-5.873-0.706-8.81c0-15.857,5.403-29.249,16.21-40.056c10.808-10.806,24.08-16.21,40.056-16.21
		c3.523,0,6.813,0.588,9.866,1.761V31.599c0-6.578,2.233-12.1,6.696-16.563c4.463-4.463,9.984-6.696,16.562-6.696
		c6.695,0,12.217,2.232,16.68,6.578c4.464,4.347,6.695,9.984,6.695,16.562v86.572H751.831z M740.32,100.432V31.48
		c0-3.523-1.057-6.343-3.288-8.575c-2.233-2.114-5.053-3.289-8.576-3.289c-3.405,0-6.225,1.059-8.456,3.289
		c-2.233,2.232-3.29,5.052-3.29,8.458v68.952c0,5.874-2.113,10.806-6.225,14.917s-9.164,6.108-15.036,6.108
		c-5.874,0-10.807-1.997-14.918-6.108s-6.108-9.044-6.108-14.917s1.997-10.807,6.108-15.035c4.111-4.112,9.044-6.226,14.918-6.226
		c3.523,0,6.343-1.057,8.575-3.289c2.231-2.115,3.288-5.051,3.288-8.457c0-3.525-1.057-6.343-3.288-8.575
		c-2.232-2.232-5.052-3.289-8.575-3.289c-12.804,0-23.375,4.346-31.95,12.921c-8.576,8.575-12.803,19.264-12.803,31.951
		c0,12.569,4.345,23.257,12.921,31.832c8.574,8.575,19.264,12.921,31.832,12.921c12.687,0,23.259-4.346,31.95-12.921
		C735.974,123.808,740.32,113.118,740.32,100.432z M702.38,107.245c-2.702,0.117-6.46,0.821-11.276,2.114
		c1.293,0.587,2.701,0.823,4.229,0.823C698.151,110.183,700.5,109.242,702.38,107.245z"/>
	<path fill="#06CD89" d="M798.113,146.713c0,7.283-2.467,13.392-7.519,18.441c-5.051,5.053-11.159,7.519-18.441,7.519
		s-13.39-2.466-18.442-7.519c-5.05-5.05-7.517-11.158-7.517-18.441c0-3.054,0.469-5.872,1.526-8.574
		c-1.058-2.938-1.526-5.873-1.526-8.929c0-7.164,2.584-13.272,7.635-18.323c5.05-5.051,11.159-7.518,18.324-7.518
		c7.166,0,13.273,2.467,18.325,7.518c5.051,5.051,7.635,11.159,7.635,18.323c0,3.173-0.471,6.109-1.409,8.929
		C797.643,140.841,798.113,143.659,798.113,146.713z M786.719,129.21c0-3.993-1.41-7.399-4.347-10.219
		c-2.818-2.818-6.343-4.229-10.219-4.229c-3.993,0-7.4,1.41-10.22,4.229c-2.818,2.819-4.346,6.226-4.346,10.219
		c0,4.112,1.409,7.519,4.229,10.338c2.819,2.818,6.227,4.229,10.337,4.229c4.111,0,7.519-1.41,10.336-4.229
		C785.309,136.729,786.719,133.205,786.719,129.21z"/>
</g>
<g>
	<path d="M175.552,182.6c0,6.695-2.233,12.217-6.696,16.562c-4.463,4.347-9.984,6.578-16.681,6.578
		c-14.096,0-25.958-4.698-35.591-14.096c-9.633-9.396-14.448-21.144-14.448-35.238V68.188c0-1.761-0.823-2.7-2.467-2.818v78.583
		c0,6.696-2.231,12.217-6.696,16.562c-4.463,4.346-9.985,6.578-16.679,6.578c-6.696,0-12.218-2.232-16.562-6.578
		c-4.347-4.346-6.579-9.866-6.579-16.562V68.188c0-1.878-0.939-2.818-2.819-2.818s-2.819,0.94-2.819,2.818v75.766
		c0,6.696-2.233,12.217-6.578,16.562c-4.347,4.346-9.867,6.578-16.562,6.578c-6.697,0-12.216-2.232-16.681-6.578
		C3.231,156.171,1,150.532,1,143.954V50.57c0-13.861,4.816-25.489,14.33-35.121C24.845,5.934,36.591,1.118,50.335,1.118
		c8.927,0,17.15,2.231,24.55,6.695c7.4-4.463,15.622-6.695,24.55-6.695c13.862,0,25.49,4.816,35.005,14.331
		c9.513,9.515,14.212,21.26,14.212,35.121v88.215c0,1.88,0.94,2.82,2.82,2.82c6.93,0,12.686,2.232,17.267,6.578
		c4.581,4.346,6.813,9.983,6.813,16.797c0,3.054-0.471,5.99-1.528,8.81C174.965,176.493,175.552,179.429,175.552,182.6z
		 M164.04,164.98c0-3.524-1.057-6.344-3.288-8.574c-2.232-2.232-5.052-3.29-8.576-3.29h-0.704c-3.995,0-7.401-1.409-10.102-4.111
		c-2.703-2.701-4.111-6.107-4.111-10.102V50.57c0-10.807-3.642-19.852-10.807-27.134c-7.166-7.283-16.209-10.924-27.017-10.924
		c-9.397,0-17.62,3.054-24.55,9.279c-7.166-6.226-15.388-9.279-24.55-9.279c-10.807,0-19.851,3.642-27.017,10.924
		c-7.283,7.282-10.925,16.327-10.925,27.134v75.764c0,3.523,1.059,6.344,3.29,8.575c2.231,2.114,5.05,3.289,8.574,3.289
		s6.343-1.057,8.576-3.289c2.114-2.114,3.289-5.052,3.289-8.575V50.57c0-3.994,1.41-7.399,4.111-10.102
		c2.701-2.702,6.109-4.111,10.102-4.111c3.875,0,7.166,1.409,9.985,4.229c2.818,2.819,4.229,6.108,4.229,9.984v75.764
		c0,3.523,1.057,6.344,3.289,8.575c2.114,2.114,5.05,3.289,8.574,3.289s6.344-1.057,8.576-3.289
		c2.231-2.114,3.288-5.052,3.288-8.575V41.995c2.819-3.759,6.578-5.638,11.277-5.638c3.876,0,7.166,1.409,9.867,4.229
		c2.703,2.819,4.111,6.108,4.111,9.984v88.215c0,10.808,3.642,19.734,10.925,27.017c7.282,7.283,16.328,10.925,27.017,10.925h0.704
		c3.524,0,6.344-1.057,8.576-3.289C162.983,171.323,164.04,168.505,164.04,164.98z"/>
	<path d="M255.428,110.946c0,15.858-5.403,29.249-16.329,40.055c-10.923,10.925-24.196,16.329-40.054,16.329
		c-15.976,0-29.25-5.404-40.056-16.329c-10.808-10.806-16.211-24.196-16.211-40.172c0-2.936,0.235-5.873,0.705-8.81
		c-0.47-2.937-0.705-5.874-0.705-8.811c0-15.975,5.403-29.366,16.211-40.055c10.806-10.807,24.08-16.21,40.056-16.21
		c15.973,0,29.249,5.403,40.172,16.21c10.807,10.807,16.21,24.197,16.21,40.055c0,3.055-0.235,5.991-0.705,8.928
		C255.192,105.191,255.428,108.01,255.428,110.946z M244.034,93.444c0-12.804-4.347-23.492-12.922-32.067
		c-8.573-8.575-19.264-12.804-32.066-12.804c-12.805,0-23.377,4.229-31.951,12.804c-8.575,8.575-12.804,19.264-12.804,32.067
		c0,12.804,4.229,23.493,12.804,32.067c8.574,8.575,19.263,12.921,31.951,12.921c12.803,0,23.494-4.346,32.066-12.921
		C239.687,116.938,244.034,106.13,244.034,93.444z M220.305,93.444c0,5.873-2.114,10.808-6.224,15.035
		c-4.112,4.111-9.163,6.227-15.035,6.227c-5.873,0-10.808-2.115-14.919-6.227c-4.111-4.111-6.108-9.162-6.108-15.035
		c0-5.874,1.997-10.807,6.108-14.917c4.111-4.112,9.046-6.109,14.919-6.109c5.873,0,10.806,1.997,15.035,6.109
		C218.191,82.637,220.305,87.571,220.305,93.444z"/>
	<path d="M361.381,110.946c0,15.858-5.405,29.249-16.328,40.055c-10.923,10.925-24.198,16.329-40.056,16.329
		c-15.976,0-29.249-5.404-40.056-16.329c-10.806-10.806-16.208-24.196-16.208-40.172c0-2.936,0.235-5.873,0.704-8.81
		c-0.469-2.937-0.704-5.874-0.704-8.811c0-15.975,5.402-29.366,16.208-40.055c10.808-10.807,24.081-16.21,40.056-16.21
		c15.975,0,29.366,5.403,40.173,16.21c10.805,10.807,16.21,24.197,16.21,40.055c0,3.055-0.235,5.991-0.706,8.928
		C361.146,105.191,361.381,108.01,361.381,110.946z M349.988,93.444c0-12.804-4.348-23.492-12.922-32.067
		c-8.576-8.575-19.266-12.804-32.068-12.804c-12.804,0-23.376,4.229-31.949,12.804c-8.577,8.575-12.806,19.264-12.806,32.067
		c0,12.804,4.229,23.493,12.806,32.067c8.573,8.575,19.264,12.921,31.949,12.921c12.803,0,23.492-4.346,32.068-12.921
		C345.64,116.938,349.988,106.13,349.988,93.444z M326.259,93.444c0,5.873-2.114,10.808-6.225,15.035
		c-4.111,4.111-9.163,6.227-15.036,6.227c-5.874,0-10.806-2.115-14.918-6.227c-4.11-4.111-6.108-9.162-6.108-15.035
		c0-5.874,1.998-10.807,6.108-14.917c4.112-4.112,9.044-6.109,14.918-6.109c5.874,0,10.807,1.997,15.036,6.109
		C324.145,82.637,326.259,87.571,326.259,93.444z"/>
	<path d="M467.334,110.829c0,15.74-5.521,29.014-16.445,39.938c-10.926,10.925-24.316,16.328-39.938,16.328
		c-15.857,0-29.131-5.403-39.938-16.21c-10.808-10.807-16.21-24.08-16.21-39.938c0-2.937,0.235-5.873,0.704-8.809
		c-0.469-2.937-0.704-5.874-0.704-8.81c0-15.857,5.402-29.25,16.21-40.057c10.806-10.806,24.08-16.21,40.057-16.21
		c3.523,0,6.812,0.588,9.866,1.762V24.376c0-6.578,2.231-12.1,6.693-16.563c4.465-4.463,9.985-6.695,16.563-6.695
		c6.696,0,12.217,2.231,16.681,6.577c4.463,4.347,6.694,9.985,6.694,16.563v86.571H467.334z M455.821,93.209V24.258
		c0-3.524-1.057-6.343-3.288-8.575c-2.231-2.115-5.051-3.29-8.575-3.29c-3.407,0-6.226,1.059-8.457,3.29
		c-2.231,2.232-3.288,5.051-3.288,8.457v68.952c0,5.874-2.116,10.807-6.228,14.917c-4.111,4.111-9.161,6.108-15.035,6.108
		c-5.872,0-10.808-1.997-14.917-6.108c-4.112-4.11-6.108-9.044-6.108-14.917s1.996-10.807,6.108-15.036
		c4.11-4.111,9.045-6.226,14.917-6.226c3.524,0,6.343-1.057,8.575-3.289c2.231-2.115,3.289-5.051,3.289-8.458
		c0-3.524-1.058-6.342-3.289-8.575c-2.232-2.232-5.051-3.289-8.575-3.289c-12.803,0-23.375,4.346-31.951,12.921
		c-8.574,8.575-12.803,19.264-12.803,31.951c0,12.568,4.347,23.257,12.92,31.832c8.574,8.575,19.265,12.922,31.833,12.922
		c12.686,0,23.257-4.347,31.95-12.922C451.594,116.585,455.821,105.896,455.821,93.209z M417.881,100.022
		c-2.701,0.118-6.461,0.821-11.276,2.115c1.292,0.587,2.702,0.822,4.229,0.822C413.651,102.959,416.001,102.02,417.881,100.022z"/>
	<path d="M574.227,110.946c0,15.623-5.522,28.896-16.445,39.82c-10.925,10.925-24.315,16.328-39.938,16.328
		c-15.857,0-29.133-5.403-39.938-16.21c-10.807-10.807-16.211-24.198-16.211-40.056V24.258c0-6.579,2.233-12.099,6.696-16.563
		C472.854,3.232,478.375,1,484.953,1c6.694,0,12.216,2.232,16.68,6.578c4.465,4.464,6.695,9.984,6.695,16.68v14.447
		c3.055-1.173,6.226-1.761,9.633-1.761c15.974,0,29.249,5.403,40.172,16.21c10.807,10.807,16.211,24.197,16.211,40.055
		c0,3.055-0.235,5.991-0.705,8.811C573.99,105.073,574.227,108.01,574.227,110.946z M562.832,93.444
		c0-12.685-4.346-23.375-12.921-31.951c-8.575-8.575-19.265-12.921-32.067-12.921c-3.524,0-6.343,1.058-8.576,3.289
		c-2.113,2.231-3.288,5.052-3.288,8.575c0,3.524,1.057,6.343,3.288,8.457c2.115,2.115,5.052,3.29,8.576,3.29
		c5.873,0,10.805,2.114,15.034,6.225c4.111,4.111,6.227,9.162,6.227,15.035c0,5.873-2.115,10.808-6.227,14.918
		c-4.111,4.112-9.161,6.109-15.034,6.109c-5.874,0-10.808-1.997-14.919-6.109c-4.111-4.11-6.107-9.045-6.107-14.918V24.493
		c0-3.524-1.059-6.343-3.29-8.575c-2.231-2.113-5.05-3.288-8.574-3.288c-3.406,0-6.227,1.057-8.458,3.288
		c-2.231,2.232-3.288,5.051-3.288,8.458v68.952c0,12.686,4.346,23.257,12.921,31.95c8.574,8.691,19.264,12.921,31.833,12.921
		c12.686,0,23.258-4.346,31.95-12.921C558.486,116.585,562.832,106.013,562.832,93.444z M522.306,102.137
		c-1.292-0.588-3.17-0.94-5.637-1.174c-2.819-0.236-4.699-0.471-5.756-0.822c1.878,1.997,4.229,2.936,7.048,2.936
		C519.369,102.959,520.898,102.724,522.306,102.137z"/>
	<path d="M640.476,77.939c0,6.931-2.113,12.452-6.225,16.445c-4.112,3.994-9.633,6.343-16.211,6.931
		c-2.35,0.117-3.524,0.939-3.524,2.584v39.819c0,6.696-2.23,12.217-6.694,16.563c-4.465,4.346-9.984,6.577-16.68,6.577
		c-6.697,0-12.217-2.231-16.563-6.577c-4.345-4.347-6.578-9.985-6.578-16.681V86.045c0-13.861,4.815-25.491,14.331-35.005
		c9.515-9.515,21.261-14.213,35.004-14.213c6.578,0,12.1,2.232,16.562,6.695c4.465,4.464,6.696,9.985,6.696,16.563
		c0,3.289-0.587,6.226-1.762,8.927C639.889,72.065,640.476,74.886,640.476,77.939z M629.081,60.319c0-3.406-1.057-6.226-3.288-8.458
		c-2.232-2.231-5.05-3.406-8.458-3.406c-10.806,0-19.851,3.642-27.017,10.806c-7.282,7.165-10.925,16.211-10.925,27.018v39.937
		c0,3.524,1.058,6.344,3.289,8.575c2.116,2.114,5.052,3.289,8.576,3.289c3.523,0,6.343-1.058,8.574-3.289
		c2.231-2.114,3.29-5.051,3.29-8.575v-39.82c0-3.994,1.29-7.283,3.993-9.75c2.583-2.467,5.991-3.994,9.984-4.346
		C625.088,71.713,629.081,67.72,629.081,60.319z"/>
	<path d="M745.959,110.829c0,15.74-5.521,29.014-16.446,39.938c-10.923,10.925-24.313,16.328-39.938,16.328
		c-15.857,0-29.131-5.403-39.938-16.21c-10.805-10.807-16.208-24.08-16.208-39.938c0-2.937,0.235-5.873,0.704-8.809
		c-0.469-2.937-0.704-5.874-0.704-8.81c0-15.857,5.403-29.25,16.208-40.057c10.808-10.806,24.081-16.21,40.057-16.21
		c3.524,0,6.813,0.588,9.867,1.762V24.376c0-6.578,2.231-12.1,6.695-16.563c4.463-4.463,9.984-6.695,16.563-6.695
		c6.693,0,12.215,2.231,16.679,6.577c4.465,4.347,6.696,9.985,6.696,16.563v86.571H745.959z M734.447,93.209V24.258
		c0-3.524-1.057-6.343-3.289-8.575c-2.231-2.115-5.051-3.29-8.574-3.29c-3.407,0-6.227,1.059-8.457,3.29
		c-2.233,2.232-3.291,5.051-3.291,8.457v68.952c0,5.874-2.113,10.807-6.225,14.917c-4.111,4.111-9.162,6.108-15.036,6.108
		c-5.873,0-10.806-1.997-14.917-6.108c-4.111-4.11-6.108-9.044-6.108-14.917s1.997-10.807,6.108-15.036
		c4.111-4.111,9.044-6.226,14.917-6.226c3.524,0,6.345-1.057,8.576-3.289c2.231-2.115,3.289-5.051,3.289-8.458
		c0-3.524-1.058-6.342-3.289-8.575s-5.052-3.289-8.576-3.289c-12.803,0-23.375,4.346-31.949,12.921
		c-8.575,8.575-12.804,19.264-12.804,31.951c0,12.568,4.346,23.257,12.922,31.832c8.574,8.575,19.264,12.922,31.831,12.922
		c12.688,0,23.259-4.347,31.95-12.922C730.101,116.585,734.447,105.896,734.447,93.209z M696.507,100.022
		c-2.702,0.118-6.461,0.821-11.276,2.115c1.292,0.587,2.701,0.822,4.229,0.822C692.278,102.959,694.628,102.02,696.507,100.022z"/>
	<path d="M792.24,139.49c0,7.283-2.467,13.392-7.519,18.442c-5.05,5.052-11.159,7.518-18.441,7.518
		c-7.283,0-13.391-2.466-18.442-7.518c-5.051-5.051-7.518-11.159-7.518-18.442c0-3.054,0.47-5.872,1.527-8.574
		c-1.058-2.937-1.527-5.873-1.527-8.928c0-7.165,2.586-13.273,7.636-18.324c5.051-5.05,11.159-7.518,18.324-7.518
		c7.166,0,13.273,2.468,18.325,7.518c5.05,5.051,7.635,11.159,7.635,18.324c0,3.172-0.471,6.108-1.41,8.928
		C791.77,133.618,792.24,136.437,792.24,139.49z M780.846,121.988c0-3.993-1.41-7.4-4.347-10.22
		c-2.819-2.818-6.343-4.229-10.219-4.229c-3.993,0-7.401,1.41-10.22,4.229c-2.818,2.819-4.346,6.227-4.346,10.22
		c0,4.111,1.408,7.519,4.228,10.337c2.821,2.818,6.227,4.229,10.338,4.229s7.518-1.411,10.337-4.229
		C779.436,129.507,780.846,125.983,780.846,121.988z"/>
</g>
</svg>
